{
    "configuration": {
        "--kernel_input": "",
        "--training_size": 100,
        "--test_size": 100,
        "--nqubits": 4,
        "--with_pca": "True",
        "--with_kernel_pca": "False",
        "--with_standardscale": "True",
        "--shots": 8192,
        "--feature_map": "FirstOrderExpansion",
        "--feature_map_depth": 1,
        "--batch_size": 200,
        "--backend": "qasm_simulator",
        "--name": "qsvm_monoHbb",
        "--noise": "False",
        "--noise_model": "False",
        "--cat": "tth",
        "--with_error_mitigation": "False",
        "--save_roc_plot": "/afs/cern.ch/work/t/tupham/hep-qml/roc_plots/qsvm/samples_1400-600_signal_mass_point/FirstOrderExpansion/100events_depth1_nqubits4",
        "--save_results": "/afs/cern.ch/work/t/tupham/hep-qml/outputs/qsvm/samples_1400-600_signal_mass_point/FirstOrderExpansion/100events_depth1_nqubits4",
        "--withPolyFeature": "False",
        "--evaluation_rounds": 3,
        "--entanglement": "full"
    },
    "inputdir": "/afs/cern.ch/work/t/tupham/hep-qml/data/samples_1400-600_signal_mass_point/100_events",
    "CONDA_PREFIX": "/afs/cern.ch/user/t/tupham/miniconda2",
    "INITDIR": "/afs/cern.ch/work/t/tupham/hep-qml"
}